Is happiness U-shaped?
…
Looks like it should be enough.

mean_happy <- dat_svy %>%
  mutate(age_grp = cut(agea, seq(15,90,5))) %>%
  select(age_grp, cntry, happy) %>%
  na.omit() %>%
  group_by(cntry, age_grp) %>%
  summarise(Happiness = survey_mean(happy))
mean_happy

## # A tibble: 405 x 4
## # Groups:   cntry [27]
##    cntry        age_grp Happiness Happiness_se
##    <chr+lbl>    <fct>       <dbl>        <dbl>
##  1 AT [Austria] (40,45]      7.92        0.151
##  2 AT [Austria] (65,70]      7.95        0.115
##  3 AT [Austria] (35,40]      7.92        0.155
##  4 AT [Austria] (60,65]      8.02        0.153
##  5 AT [Austria] (70,75]      7.74        0.131
##  6 AT [Austria] (55,60]      7.84        0.144
##  7 AT [Austria] (20,25]      7.92        0.169
##  8 AT [Austria] (45,50]      7.83        0.165
##  9 AT [Austria] (75,80]      7.98        0.125
## 10 AT [Austria] (25,30]      8.28        0.128
## # ... with 395 more rows
…
Use map_dfr to fit the function to all countries data, producing a “long” tibble with all the coefficients.

u_happy_coefs <- cs %>%
  map_dfr(function (x) 
            dat_svy %>%
            filter(cntry == x) %>%
            happy_run() %>%
            mutate(cntry = x, .before = "term")
  )
u_happy_coefs

## # A tibble: 81 x 6
##    cntry            term         estimate std.error statistic   p.value
##    <chr+lbl>        <chr>           <dbl>     <dbl>     <dbl>     <dbl>
##  1 AT [Austria]     (Intercept)  8.50     0.279        30.4   5.59e-173
##  2 AT [Austria]     agea        -0.0207   0.0123       -1.69  9.16e-  2
##  3 AT [Austria]     I(agea^2)    0.000152 0.000120      1.27  2.04e-  1
##  4 BE [Belgium]     (Intercept)  7.97     0.221        36.0   3.59e-213
##  5 BE [Belgium]     agea        -0.00987  0.00979      -1.01  3.14e-  1
##  6 BE [Belgium]     I(agea^2)    0.000111 0.0000980     1.13  2.60e-  1
##  7 BG [Bulgaria]    (Intercept)  8.01     0.355        22.5   2.37e-101
##  8 BG [Bulgaria]    agea        -0.0524   0.0149       -3.51  4.54e-  4
##  9 BG [Bulgaria]    I(agea^2)    0.000123 0.000145      0.851 3.95e-  1
## 10 CH [Switzerland] (Intercept)  7.87     0.261        30.2   1.73e-157
## # ... with 71 more rows
…
